<?xml version="1.0" encoding="utf-8"?>
<!-- Generator: Adobe Illustrator 19.1.0, SVG Export Plug-In . SVG Version: 6.00 Build 0)  -->
<!DOCTYPE svg PUBLIC "-//W3C//DTD SVG 1.1//EN" "http://www.w3.org/Graphics/SVG/1.1/DTD/svg11.dtd">
<svg version="1.1" id="Layer_1" xmlns="http://www.w3.org/2000/svg" xmlns:xlink="http://www.w3.org/1999/xlink" x="0px" y="0px"
	 viewBox="0 0 92 10" style="enable-background:new 0 0 92 10;" xml:space="preserve">
<style type="text/css">
	.st0{fill:#FFFFFF;}
	.st1{fill:#12ABC5;}
</style>
<g>
	<path class="st0" d="M0.2,9.2V0.9H5v0.9H1.2v2.7h3.6v0.9H1.2v3.1H5v0.9H0.2z"/>
	<path class="st0" d="M6.1,9.2l3.8-8.7l3.8,8.7h-1l-0.9-2.1H8L7.1,9.2H6.1z M8.3,6.3h3L9.8,2.8L8.3,6.3z"/>
	<path class="st0" d="M15.1,7c0.4,1,1.1,1.5,2.1,1.5c0.7,0,1.2-0.2,1.4-0.6s0.3-0.6,0.3-0.9c0-0.5-0.1-0.8-0.4-1
		c-0.3-0.2-0.8-0.5-1.5-0.8c-0.8-0.3-1.3-0.7-1.7-1c-0.3-0.3-0.5-0.8-0.5-1.4c0-0.6,0.2-1.1,0.6-1.5s1-0.6,1.6-0.6
		c1,0,1.8,0.4,2.3,1.3l-0.8,0.4c-0.3-0.6-0.8-0.9-1.5-0.9c-0.8,0-1.3,0.5-1.3,1.2c0,0.4,0.1,0.7,0.5,1c0.2,0.1,0.4,0.2,0.5,0.3
		l0.7,0.3c0.9,0.4,1.5,0.7,1.8,1.1c0.4,0.4,0.6,0.9,0.6,1.5c0,0.7-0.2,1.2-0.7,1.7c-0.5,0.4-1.1,0.7-1.9,0.7c-1.3,0-2.4-0.7-2.9-2
		L15.1,7z"/>
	<path class="st0" d="M23.1,9.2V5.8l-2.9-4.9h1l2.4,4l2.4-4h1L24,5.8v3.4H23.1z"/>
</g>
<g>
	<path class="st0" d="M40,9.2V0.9h3.5c0.7,0,1.3,0.3,1.9,0.8s0.9,1.2,0.9,2.1c0,0.8-0.3,1.5-0.9,2c-0.6,0.5-1.2,0.8-2,0.8h-1.7v2.7
		H40z M41.8,4.9h1.6c0.3,0,0.5-0.1,0.7-0.3c0.2-0.2,0.3-0.5,0.3-0.9c0-0.4-0.1-0.7-0.3-0.9c-0.2-0.2-0.5-0.3-0.7-0.3h-1.6V4.9z"/>
	<path class="st0" d="M48.4,2c0.9-0.8,1.9-1.3,3.2-1.3s2.3,0.4,3.2,1.3C55.6,2.9,56,3.9,56,5.1c0,1.2-0.4,2.2-1.3,3.1
		c-0.9,0.8-1.9,1.2-3.2,1.2c-1.2,0-2.3-0.4-3.2-1.2c-0.9-0.8-1.3-1.9-1.3-3.1C47.1,3.9,47.5,2.9,48.4,2z M49.7,7
		c0.5,0.5,1.1,0.8,1.9,0.8s1.3-0.3,1.8-0.8c0.5-0.5,0.8-1.2,0.8-1.9c0-0.7-0.3-1.4-0.8-1.9c-0.5-0.5-1.1-0.8-1.9-0.8
		s-1.4,0.3-1.9,0.8c-0.5,0.5-0.8,1.1-0.8,1.9C48.9,5.8,49.2,6.5,49.7,7z"/>
	<path class="st0" d="M57.3,9.2V0.9h1.8v6.7h3.3v1.7H57.3z"/>
	<path class="st0" d="M63.5,9.2V0.9h1.8v8.4H63.5z"/>
	<path class="st0" d="M68.7,9.2V2.6h-2.3V0.9h6.3v1.7h-2.2v6.7H68.7z"/>
	<path class="st0" d="M73.8,9.2V0.9h1.8v8.4H73.8z"/>
	<path class="st0" d="M84.8,2.3l-1.3,1.1c-0.6-0.6-1.3-0.9-2.1-0.9c-0.7,0-1.4,0.3-1.9,0.8s-0.8,1.1-0.8,1.9S79,6.5,79.5,7
		c0.5,0.5,1.1,0.7,1.9,0.7c0.9,0,1.6-0.3,2.1-1l1.3,1.1c-0.9,1-2.1,1.6-3.4,1.6c-1.3,0-2.3-0.4-3.2-1.2c-0.9-0.8-1.3-1.8-1.3-3.1
		s0.4-2.3,1.3-3.1c0.9-0.8,1.9-1.2,3.2-1.2C82.8,0.8,84,1.3,84.8,2.3z"/>
	<path class="st0" d="M86.6,6.6c0.4,0.7,1.1,1.1,2.1,1.1c0.9,0,1.2-0.4,1.2-0.8c0-0.3-0.2-0.5-0.5-0.7c-0.2-0.1-0.5-0.3-0.7-0.3
		c-0.2-0.1-0.7-0.2-0.9-0.3c-1.3-0.5-2-1.2-2-2.4c0-0.7,0.3-1.3,0.8-1.7c0.5-0.4,1.2-0.6,2-0.6c1.2,0,2.1,0.5,2.8,1.4l-1.2,0.9
		c-0.3-0.4-0.8-0.6-1.5-0.6c-0.6,0-1,0.3-1,0.7c0,0.3,0.1,0.4,0.3,0.6c0.1,0.1,0.3,0.1,0.4,0.2l0.6,0.2c0.3,0.1,0.5,0.2,0.7,0.3
		c1.5,0.6,2.1,1.3,2.1,2.5c0,1.5-1.1,2.6-3.1,2.6c-1.7,0-2.9-0.8-3.4-1.8L86.6,6.6z"/>
</g>
<polygon class="st1" points="32.8,7.7 30,9.2 30.5,6.1 28.3,3.9 31.4,3.4 32.8,0.6 34.2,3.4 37.3,3.9 35.1,6.1 35.6,9.2 "/>
</svg>
