<svg xmlns="http://www.w3.org/2000/svg">
  <defs>
    <linearGradient id="logo-SVGID_1_" gradientUnits="userSpaceOnUse" x1="42" y1="63" x2="42" y2="11" gradientTransform="matrix(1 0 0 1 0 4)">
      <stop offset="0" style="stop-color:#9397FD" />
      <stop offset="0.5" style="stop-color:#088AF4" />
      <stop offset="1" style="stop-color:#00F8FD" /> </linearGradient>
  </defs>
  <symbol viewBox="0 0 30 24" id="icon-back">
    <title>back</title>
    <path d="M0.5,10.8l10-10c0.7-0.7,1.7-0.7,2.4,0c0.7,0.7,0.7,1.7,0,2.4l-7.1,7.1h22.5c0.9,0,1.7,0.8,1.7,1.7c0,0.9-0.8,1.7-1.7,1.7
	H5.8l7.1,7.1c0.7,0.7,0.7,1.7,0,2.4c-0.3,0.3-0.8,0.5-1.2,0.5s-0.9-0.2-1.2-0.5l-10-10C-0.2,12.5-0.2,11.5,0.5,10.8z" /> </symbol>
  <symbol viewBox="0 0 160 160" id="icon-disc">
    <title>disc</title>
    <g id="disc-XMLID_208_">
      <g id="disc-XMLID_221_">
        <path id="disc-XMLID_222_" d="M80,154.5c-41.1,0-74.5-33.4-74.5-74.5S38.9,5.5,80,5.5s74.5,33.4,74.5,74.5S121.1,154.5,80,154.5z
			 M80,14.8C44,14.8,14.8,44,14.8,80S44,145.2,80,145.2S145.2,116,145.2,80S116,14.8,80,14.8z" /> </g>
      <g id="disc-XMLID_217_">
        <path id="disc-XMLID_218_" d="M80,98.6c-10.3,0-18.6-8.4-18.6-18.6S69.7,61.4,80,61.4S98.6,69.7,98.6,80S90.3,98.6,80,98.6z M80,70.7
			c-5.1,0-9.3,4.2-9.3,9.3s4.2,9.3,9.3,9.3s9.3-4.2,9.3-9.3S85.1,70.7,80,70.7z" /> </g>
      <g id="disc-XMLID_215_">
        <rect id="disc-XMLID_216_" x="75.3" y="24.1" width="9.3" height="46.6" /> </g>
      <g id="disc-XMLID_213_">
        <rect id="disc-XMLID_214_" x="75.3" y="89.3" width="9.3" height="46.6" /> </g>
      <g id="disc-XMLID_211_">
        <rect id="disc-XMLID_212_" x="98.4" y="33.6" transform="matrix(0.7071 0.7071 -0.7071 0.7071 70.4483 -56.1969)" width="9.3" height="46.6" /> </g>
      <g id="disc-XMLID_209_">
        <rect id="disc-XMLID_210_" x="52.3" y="79.8" transform="matrix(0.7071 0.7071 -0.7071 0.7071 89.5517 -10.0773)" width="9.3" height="46.6" /> </g>
    </g>
  </symbol>
  <symbol viewBox="0 0 15 15" id="icon-down">
    <title>down</title>
    <g>
      <polygon points="9.4,4.7 5.6,4.7 5.6,7.5 3.8,7.5 7.5,11.3 11.3,7.5 9.4,7.5 	" />
      <path d="M7.5,0C3.4,0,0,3.4,0,7.5S3.4,15,7.5,15S15,11.6,15,7.5S11.6,0,7.5,0z M7.5,13.1c-3.1,0-5.6-2.5-5.6-5.6s2.5-5.6,5.6-5.6
		s5.6,2.5,5.6,5.6S10.6,13.1,7.5,13.1z" /> </g>
  </symbol>
  <symbol viewBox="0 0 15 15" id="icon-hat">
    <title>hat</title>
    <path d="M11.3,9.9c0-2.9,0.1-5.3,0.8-7.6c0.1-0.2,0-0.5-0.3-0.5C11.1,1.5,9.6,1,7.5,1S3.9,1.5,3.2,1.8C3,1.8,2.9,2,2.9,2.3
	C3.6,4.6,3.7,7,3.7,9.9C1.5,9.5,0,9.1,0,10.3c0,0.7,0.9,1.9,2.8,2.8C3.9,13.6,5.6,14,7.5,14s3.6-0.4,4.7-0.9
	c1.9-0.9,2.8-2.1,2.8-2.8C15,9.1,13.5,9.5,11.3,9.9z M5.6,2.6L5.6,2.6c0.5,1.9,0.6,3.8,0.7,5.9c0,0.5,0,1.1,0,1.7
	c-0.3,0-1.6-0.1-1.8-0.1c0-0.5,0-1,0-1.4c0-2.2-0.2-4.1-0.7-6V2.5C4,2.5,5.3,2.6,5.6,2.6z M14.2,10.8L14.2,10.8
	c-0.6,0.5-1.2,1-2,1.3c-1.2,0.6-3,1-4.7,1c-1.8,0-3.6-0.4-4.7-1c-0.8-0.4-1.4-0.8-1.9-1.3l0,0v-0.1c0-0.2,0.1-0.4,0.3-0.5
	s0.4-0.1,0.6,0c0.3,0.2,0.7,0.5,1.1,0.7c1.1,0.6,2.9,0.9,4.6,0.9s3.5-0.3,4.6-0.9c0.4-0.2,0.8-0.5,1.2-0.7c0.2-0.1,0.4-0.1,0.6,0
	c0.2,0.1,0.3,0.3,0.3,0.5C14.2,10.7,14.2,10.8,14.2,10.8z" /> </symbol>
  <symbol viewBox="0 0 160 160" id="icon-levels">
    <title>levels</title>
    <g id="levels-XMLID_104_">
      <g id="levels-XMLID_206_">
        <rect id="levels-XMLID_207_" x="28.8" y="5.5" width="9.3" height="37.3" /> </g>
      <g id="levels-XMLID_204_">
        <rect id="levels-XMLID_205_" x="28.8" y="98.6" width="9.3" height="55.9" /> </g>
      <g id="levels-XMLID_121_">
        <path id="levels-XMLID_122_" d="M33.4,89.3c-10.3,0-18.6-8.4-18.6-18.6S23.1,52,33.4,52S52,60.4,52,70.7S43.7,89.3,33.4,89.3z M33.4,61.4
			c-5.1,0-9.3,4.2-9.3,9.3s4.2,9.3,9.3,9.3s9.3-4.2,9.3-9.3S38.5,61.4,33.4,61.4z" /> </g>
      <g id="levels-XMLID_119_">
        <rect id="levels-XMLID_120_" x="75.3" y="5.5" width="9.3" height="74.5" /> </g>
      <g id="levels-XMLID_117_">
        <rect id="levels-XMLID_118_" x="75.3" y="135.9" width="9.3" height="18.6" /> </g>
      <g id="levels-XMLID_113_">
        <path id="levels-XMLID_114_" d="M80,126.6c-10.3,0-18.6-8.4-18.6-18.6S69.7,89.3,80,89.3s18.6,8.4,18.6,18.6S90.3,126.6,80,126.6z
			 M80,98.6c-5.1,0-9.3,4.2-9.3,9.3s4.2,9.3,9.3,9.3s9.3-4.2,9.3-9.3S85.1,98.6,80,98.6z" /> </g>
      <g id="levels-XMLID_111_">
        <rect id="levels-XMLID_112_" x="121.9" y="5.5" width="9.3" height="18.6" /> </g>
      <g id="levels-XMLID_109_">
        <rect id="levels-XMLID_110_" x="121.9" y="80" width="9.3" height="74.5" /> </g>
      <g id="levels-XMLID_105_">
        <path id="levels-XMLID_106_" d="M126.6,70.7c-10.3,0-18.6-8.4-18.6-18.6s8.4-18.6,18.6-18.6s18.6,8.4,18.6,18.6S136.9,70.7,126.6,70.7z
			 M126.6,42.7c-5.1,0-9.3,4.2-9.3,9.3s4.2,9.3,9.3,9.3c5.1,0,9.3-4.2,9.3-9.3S131.7,42.7,126.6,42.7z" /> </g>
    </g>
  </symbol>
  <symbol viewBox="15 14 110 54" id="icon-logo">
    <title>logo</title>
    <style type="text/css">
      .st0 {
        fill: #FFFFFF;
      }
      
      .st1 {
        fill: url(#SVGID_1_);
      }
    </style>
    <g>
      <g>
        <g>
          <path class="st0" d="M78.5,29.9c-0.4-0.4-0.4-1.2,0-1.5c1-1.1,2.7,0.7,1.6,1.5C79.6,30.3,78.9,30.3,78.5,29.9z M78.5,48.9V33.3
				H80V49L78.5,48.9L78.5,48.9z" />
          <path class="st0" d="M89.6,48.9l-6.2-15.7H85L90.4,47l5.8-13.8h1.7l-9.2,21.7H87L89.6,48.9z" />
          <path class="st0" d="M112.9,35.7v-8.3h2.3V49h-2.3v-2.3c-0.9,1.6-2.8,2.8-5.5,2.8c-2.2,0-4.1-0.8-5.6-2.3
				c-1.5-1.6-2.3-3.6-2.3-5.9c0-2.3,0.8-4.3,2.3-5.9c1.5-1.6,3.4-2.4,5.6-2.4C110.2,32.8,112,34.1,112.9,35.7z M111.5,45.6
				c1.1-1.2,1.7-2.6,1.7-4.4c0-1.8-0.6-3.2-1.7-4.4S109,35,107.4,35s-2.9,0.6-4,1.8c-1,1.2-1.6,2.6-1.6,4.4s0.5,3.2,1.6,4.4
				s2.4,1.7,4,1.7C109,47.3,110.4,46.7,111.5,45.6z" />
          <path class="st0" d="M119.8,33.3h2.3v17.3c0,3.2-1.6,4.8-4.7,4.8c-0.3,0-0.6,0-0.9-0.1v-2.2c0.4,0.1,0.7,0.1,1.1,0.1
				c1.5,0,2.2-0.7,2.2-2.7L119.8,33.3L119.8,33.3z M119.9,30.3c-0.7-0.7-0.7-1.6,0-2.2c0.7-0.7,1.5-0.7,2.2,0c0.7,0.6,0.7,1.6,0,2.2
				C121.4,31,120.6,31,119.9,30.3z" /> </g>
      </g>
      <g>
        <path class="st1" d="M42,15c-14.3,0-26,11.7-26,26s11.7,26,26,26s26-11.7,26-26S56.3,15,42,15z M42,63.6
			c-12.5,0-22.7-10.1-22.7-22.7S29.5,18.2,42,18.2s22.7,10.1,22.7,22.7S54.4,63.6,42,63.6z M53.9,26.7v3.6v1.1v20.5v3.3h-3.3h-5.2
			H42v-3.3v-3.1V48l3.3-3.3v2.1v2v3.1h5.2V34.7L45.3,40l0,0L42,43.3l0,0l-8.6,8.6l-3.3,3.3v-4.7V36.1l3.3,3.3v7.7l6.3-6.3l-5.5-5.4
			l-4.1-4.1v-4.7l3.3,3.3l8.6,8.6L53.9,26.7z" /> </g>
    </g>
  </symbol>
  <symbol viewBox="0 0 30 24" id="icon-next">
    <title>next</title>
    <path d="M29.5,10.8l-10-10c-0.7-0.7-1.7-0.7-2.4,0c-0.7,0.7-0.7,1.7,0,2.4l7.1,7.1H1.7C0.8,10.3,0,11.1,0,12c0,0.9,0.8,1.7,1.7,1.7
	h22.5l-7.1,7.1c-0.7,0.7-0.7,1.7,0,2.4c0.3,0.3,0.8,0.5,1.2,0.5s0.9-0.2,1.2-0.5l10-10C30.2,12.5,30.2,11.5,29.5,10.8z" /> </symbol>
  <symbol viewBox="0 0 160 160" id="icon-speaker">
    <title>speaker</title>
    <g id="speaker-XMLID_104_">
      <g id="speaker-XMLID_119_">
        <path id="speaker-XMLID_120_" d="M159.2,159.2H0.8V0.8h158.4V159.2z M10.1,149.9h139.8V10.1H10.1V149.9z" /> </g>
      <g id="speaker-XMLID_115_">
        <path id="speaker-XMLID_116_" d="M80,131.2c-28.3,0-51.2-23-51.2-51.2s23-51.2,51.2-51.2s51.2,23,51.2,51.2S108.3,131.2,80,131.2z
			 M80,38.1c-23.1,0-41.9,18.8-41.9,41.9s18.8,41.9,41.9,41.9s41.9-18.8,41.9-41.9S103.1,38.1,80,38.1z" /> </g>
      <g id="speaker-XMLID_113_">
        <path id="speaker-XMLID_114_" d="M66,80h-9.3c0-12.8,10.5-23.3,23.3-23.3V66C72.3,66,66,72.3,66,80z" /> </g>
      <g id="speaker-XMLID_111_">
        <rect id="speaker-XMLID_112_" x="131.2" y="19.4" width="9.3" height="9.3" /> </g>
      <g id="speaker-XMLID_109_">
        <rect id="speaker-XMLID_110_" x="19.4" y="19.4" width="9.3" height="9.3" /> </g>
      <g id="speaker-XMLID_107_">
        <rect id="speaker-XMLID_108_" x="131.2" y="131.2" width="9.3" height="9.3" /> </g>
      <g id="speaker-XMLID_105_">
        <rect id="speaker-XMLID_106_" x="19.4" y="131.2" width="9.3" height="9.3" /> </g>
    </g>
  </symbol>
  <symbol viewBox="0 0 15 15" id="icon-up">
    <title>up</title>
    <g>
      <polygon points="3.7,7.5 5.6,7.5 5.6,10.3 9.4,10.3 9.4,7.5 11.3,7.5 7.5,3.7 	" />
      <path d="M7.5,0C3.4,0,0,3.4,0,7.5S3.4,15,7.5,15S15,11.6,15,7.5S11.6,0,7.5,0z M7.5,13.1c-3.1,0-5.6-2.5-5.6-5.6s2.5-5.6,5.6-5.6
		s5.6,2.5,5.6,5.6S10.6,13.1,7.5,13.1z" /> </g>
  </symbol>
</svg>